<?xml version="1.0" encoding="UTF-8"?>
<CustomTab xmlns="http://soap.sforce.com/2006/04/metadata">
    <customObject>true</customObject>
    <description>Un DAFO es un diagrama dividido en cuatro cuadrantes que diferencian Debilidades, Amenazas, Fortalezas y Oportunidades.</description>
    <mobileReady>false</mobileReady>
    <motif>Custom294: TV Widescreen</motif>
</CustomTab>
